%YAML 1.1
%TAG !u! tag:unity3d.com,2011:
--- !u!114 &11400000
MonoBehaviour:
  m_ObjectHideFlags: 0
  m_PrefabParentObject: {fileID: 0}
  m_PrefabInternal: {fileID: 0}
  m_GameObject: {fileID: 0}
  m_Enabled: 1
  m_EditorHideFlags: 0
  m_Script: {fileID: 11500000, guid: 7ae3d428d26b7774abb6d5aca26f056a, type: 3}
  m_Name: bigArmor
  m_EditorClassIdentifier: 
  name: bigArmor
  itemId: 4
  icon: {fileID: 21300002, guid: 3f071b3516bd7f04394defc672eff053, type: 3}
  stackable: 0
  hidden: 0
  health: 0
  armor: 50
  duration: 5
  stackSize: 1
  healthCap: 0
  armorCap: 100
