%YAML 1.1
%TAG !u! tag:unity3d.com,2011:
--- !u!114 &11400000
MonoBehaviour:
  m_ObjectHideFlags: 0
  m_PrefabParentObject: {fileID: 0}
  m_PrefabInternal: {fileID: 0}
  m_GameObject: {fileID: 0}
  m_Enabled: 1
  m_EditorHideFlags: 0
  m_Script: {fileID: 11500000, guid: 7ae3d428d26b7774abb6d5aca26f056a, type: 3}
  m_Name: miniHealth
  m_EditorClassIdentifier: 
  name: Mini Health
  itemId: 1
  icon: {fileID: 21300000, guid: 11d7491079dfe324da7202456c2ef4db, type: 3}
  stackable: 0
  hidden: 0
  health: 20
  armor: 0
  duration: 3
  stackSize: 9
  healthCap: 75
  armorCap: 100
