%YAML 1.1
%TAG !u! tag:unity3d.com,2011:
--- !u!1045 &1
EditorBuildSettings:
  m_ObjectHideFlags: 0
  serializedVersion: 2
  m_Scenes:
  - enabled: 1
    path: Assets/Scenes/LoginScreen.unity
    guid: 7ee8502ee592d7e45a806d38ba985399
  - enabled: 1
    path: Assets/Scenes/Lobby.unity
    guid: 76e36ca58bc0e0d4d82d58c69889136e
  - enabled: 1
    path: Assets/Scenes/map.unity
    guid: 73832cd86a3ecf54599b28e0fe5ef221
  - enabled: 1
    path: Assets/Scenes/Gameover.unity
    guid: daac1dc8bf60511439fa86bceb2d2733
  - enabled: 1
    path: Assets/Scenes/Victory.unity
    guid: f3bfe2f05a27cba48b0da6f262fb4d65
